zeytin - List veri yapısı üzerine üzerine notlar ve map Fonksiyonu
…
Düzgün görünmüyor bile, içerisini şu şekilde:

datatable(mt_nest_wide)

Bu gözlem çok kritik. Biz ne istiyoruz? Virgülle ayrılan değerlerin ayrı satırlara yazılmasını, en sağda ise her gözlem için ilgili değerin tekrarlamasını istiyoruz. İşte bu işi yapan ise unnest_longer

mt_nest_long <- mt_nest %>% unnest_longer(data)
mt_nest_long

# A tibble: 32 × 2
     cyl data$mpg $disp   $hp $drat   $wt $qsec   $vs   $am $gear $carb
   <dbl>    <dbl> <dbl> <dbl> <dbl> <dbl> <dbl> <dbl> <dbl> <dbl> <dbl>
 1     6     21    160    110  3.9   2.62  16.5     0     1     4     4
 2     6     21    160    110  3.9   2.88  17.0     0     1     4     4
 3     6     21.4  258    110  3.08  3.22  19.4     1     0     3     1
 4     6     18.1  225    105  2.76  3.46  20.2     1     0     3     1
 5     6     19.2  168.   123  3.92  3.44  18.3     1     0     4     4
 6     6     17.8  168.   123  3.92  3.44  18.9     1     0     4     4
 7     6     19.7  145    175  3.62  2.77  15.5     0     1     5     6
 8     4     22.8  108     93  3.85  2.32  18.6     1     1     4     1
 9     4     24.4  147.    62  3.69  3.19  20       1     0     4     2
10     4     22.8  141.    95  3.92  3.15  22.9     1     0     4     2
# ℹ 22 more rows
…
Şimdi unnest_longer kullanarak bir seviye içeriyi dışarı çıkarıyorum.

d22 <- d2 %>% unnest_longer(values)
d22

# A tibble: 393 × 4
   name  values values_id               n_t
   <chr>  <int> <chr>                 <int>
 1 Type    1774 human 3                   6
 2 Type    1983 zombie                    6
 3 Type    1061 human 4                   6
 4 Type    2292 human 1                   6
 5 Type    1792 human 2                   6
 6 Type    1098 ghost                     6
 7 Hat      415 crown                    31
 8 Hat      384 top hat                  31
 9 Hat      176 orchid (potted plant)    31
10 Hat      172 pavilion headwear        31
# ℹ 383 more rows
…
This time the elements of repos are a list of repositories that belong to that user. These are observations, so should become new rows, so we use unnest_longer() rather than unnest_wider():

repos0 <- repos %>% unnest_longer(repo)
repos0

# A tibble: 176 × 1
   repo             
   <list>           
 1 <named list [68]>
 2 <named list [68]>
 3 <named list [68]>
 4 <named list [68]>
 5 <named list [68]>
 6 <named list [68]>
 7 <named list [68]>
 8 <named list [68]>
 9 <named list [68]>
10 <named list [68]>
# ℹ 166 more rows

Aslına bu şekilde 6 kullanıcınında repolarını alt alta koyduk ve devamında unnest_wider veya hoist kullanarak verileri dışarı çıkarabilir. Ama eğer mesela sadece birinci user’ın repoları ile çalışmak isteseydik önce o user’ın olduğu list’i tibble yapmak gerekecekti.

firstUser <- tibble(repo=repos[[1]][[1]])
firstUser

# A tibble: 30 × 1
   repo             
   <list>           
 1 <named list [68]>
 2 <named list [68]>
 3 <named list [68]>
 4 <named list [68]>
 5 <named list [68]>
 6 <named list [68]>
 7 <named list [68]>
 8 <named list [68]>
 9 <named list [68]>
10 <named list [68]>
# ℹ 20 more rows

Eğer devamında unnest_longer denirse bu durumda alt seviye tamamen dışarıya çıkıyor.

firstUser %>% unnest_longer(repo)

# A tibble: 2,040 × 2
   repo              repo_id    
   <named list>      <chr>      
 1 <int [1]>         id         
 2 <chr [1]>         name       
 3 <chr [1]>         full_name  
 4 <named list [17]> owner      
 5 <lgl [1]>         private    
 6 <chr [1]>         html_url   
 7 <chr [1]>         description
 8 <lgl [1]>         fork       
 9 <chr [1]>         url        
10 <chr [1]>         forks_url  
# ℹ 2,030 more rows

Ama kısmen değerlere hoist veya unnest_wider ile mümkün. Önce hoist kodunu veriyorum çünkü bu zaten sitede de var.

firstUser %>% hoist(repo, 
  login = c("owner", "login"), 
  name = "name",
  homepage = "homepage",
  watchers = "watchers_count"
)

# A tibble: 30 × 5
   login       name        homepage watchers repo             
   <chr>       <chr>       <chr>       <int> <list>           
 1 gaborcsardi after       <NA>            5 <named list [65]>
 2 gaborcsardi argufy      <NA>           19 <named list [65]>
 3 gaborcsardi ask         <NA>            5 <named list [65]>
 4 gaborcsardi baseimports <NA>            0 <named list [65]>
 5 gaborcsardi citest      <NA>            0 <named list [65]>
 6 gaborcsardi clisymbols  ""             18 <named list [65]>
 7 gaborcsardi cmaker      <NA>            0 <named list [65]>
 8 gaborcsardi cmark       <NA>            0 <named list [65]>
 9 gaborcsardi conditions  <NA>            0 <named list [65]>
10 gaborcsardi crayon      <NA>           52 <named list [65]>
# ℹ 20 more rows

Bu da unnest_wider kodu;

firstUser %>% unnest_wider(repo)

# A tibble: 30 × 68
        id name  full_name owner        private html_url description fork  url  
     <int> <chr> <chr>     <list>       <lgl>   <chr>    <chr>       <lgl> <chr>
 1  6.12e7 after gaborcsa… <named list> FALSE   https:/… Run Code i… FALSE http…
 2  4.05e7 argu… gaborcsa… <named list> FALSE   https:/… Declarativ… FALSE http…
 3  3.64e7 ask   gaborcsa… <named list> FALSE   https:/… Friendly C… FALSE http…
 4  3.49e7 base… gaborcsa… <named list> FALSE   https:/… Do we get … FALSE http…
 5  6.16e7 cite… gaborcsa… <named list> FALSE   https:/… Test R pac… TRUE  http…
 6  3.39e7 clis… gaborcsa… <named list> FALSE   https:/… Unicode sy… FALSE http…
 7  3.72e7 cmak… gaborcsa… <named list> FALSE   https:/… port of cm… TRUE  http…
 8  6.80e7 cmark gaborcsa… <named list> FALSE   https:/… CommonMark… TRUE  http…
 9  6.32e7 cond… gaborcsa… <named list> FALSE   https:/… <NA>        TRUE  http…
10  2.43e7 cray… gaborcsa… <named list> FALSE   https:/… R package … FALSE http…
# ℹ 20 more rows
# ℹ 59 more variables: forks_url <chr>, keys_url <chr>,
#   collaborators_url <chr>, teams_url <chr>, hooks_url <chr>,
#   issue_events_url <chr>, events_url <chr>, assignees_url <chr>,
#   branches_url <chr>, tags_url <chr>, blobs_url <chr>, git_tags_url <chr>,
#   git_refs_url <chr>, trees_url <chr>, statuses_url <chr>,
#   languages_url <chr>, stargazers_url <chr>, contributors_url <chr>, …
…
