- YKS Sıralama Dağılımı Tahminleme Modeli
…
Kod

library(readxl)
EA2020Data <- read_excel("EA2020Data.xlsx")
EA2020Data

# A tibble: 3,389 × 10
         Kod  Kont   Yer  MinR  MaxR PuanTuru Bolum           Uni   Burs  UniTip
       <dbl> <dbl> <dbl> <dbl> <dbl> <chr>    <chr>           <chr> <chr> <chr> 
 1 104010052    25    25    91     4 EA       HUKUK           GALA… <NA>  DEVLET
 2 203910796    19    19   190    20 EA       HUKUK           KOÇ … Burs… VAKIF 
 3 202111106    24    24   251     7 EA       HUKUK           İHSA… Burs… VAKIF 
 4 203910275    16    16   267    10 EA       EKONOMİ         KOÇ … Burs… VAKIF 
 5 205410283    15    15   439   233 EA       HUKUK           TOBB… Burs… VAKIF 
 6 105690587    10    10   444   182 EA       HUKUK           İSTA… Ücre… DEVLET
 7 102210223   100   100   489    16 EA       İŞLETME         BOĞA… <NA>  DEVLET
 8 205110144    24    24   563    23 EA       YÖNETİM BİLİML… SABA… Burs… VAKIF 
 9 203910309    21    21   584    44 EA       İŞLETME         KOÇ … Burs… VAKIF 
10 102210214   100   100   657     3 EA       İKTİSAT         BOĞA… <NA>  DEVLET
# … with 3,379 more rows
…
