Zeytin - YKS Puanı Hesaplama Formülleri
…
    Yayınlanma Tarihi

      31 Mayıs 2022

Veri

Her puan türü1 için soru gruplarının çarpan değerini hesaplayabilmek için ATLAS’da yayınlanan TYT-AYT Net Sihirbazında bulunan veriden faydalanılmıştır. Önlisans verisine de adreste ufak bir değişiklikle ulaşılmaktadır. Dikkat edilirse sayfada seçilen bölüm için kontenjan bazında son yerleşen öğrencinin netleri ve orta-öğretim başarı puanı (OBP) verilmekte ancak bu öğrencinin puanı verilmemektedir. Aslında sayfada bu bilgi de mevcuttur2 fakat ATLAS bu bilgiyi göstermemeyi tercih etmektedir. En güncel veri üzerinden çalışıldı ancak istenirse 2020 ve daha eski veriye de ulaşmak mümkündür3. Bu sayfada bulunan tüm lisans ve önlisans bölüm isimlerine gene sayfanın kodu içinden ulaşmak mümkündür. Bölüm isimlerinin bulunduğu dosya buradan indirilebilir.

Kod

library(readxl)
kodlar <- read_excel("kodlar.xlsx")
kodlar

# A tibble: 745 × 4
      id bölüm                                        tip   PuanTuru
   <dbl> <chr>                                        <chr> <chr>   
 1 19001 ACİL YARDIM VE AFET YÖNETİMİ (FAKÜLTE)       AYT   SAY     
 2 20001 ACİL YARDIM VE AFET YÖNETİMİ (YÜKSEKOKUL)    AYT   SAY     
 3 19502 ADLİ BİLİMLER                                AYT   SAY     
 4 19002 ADLİ BİLİŞİM MÜHENDİSLİĞİ                    AYT   SAY     
 5 39001 ADLİ BİLİŞİM MÜHENDİSLİĞİ (M.T.O.K.)         AYT   SAY     
 6 19003 AĞAÇ İŞLERİ ENDÜSTRİ MÜHENDİSLİĞİ            AYT   SAY     
 7 50005 AĞAÇ İŞLERİ ENDÜSTRİ MÜHENDİSLİĞİ (M.T.O.K.) AYT   SAY     
 8 10001 AİLE VE TÜKETİCİ BİLİMLERİ                   AYT   EA      
 9 18002 AKTÜERYA BİLİMLERİ (FAKÜLTE)                 AYT   SAY     
10 20004 AKTÜERYA BİLİMLERİ (YÜKSEKOKUL)              AYT   SAY     
# … with 735 more rows

Verinin ilk 480 satırı lisans gerisi onlisans bölümlerden oluşmakta. Her bölüm için adres çubuğundaki bölüm kodu değiştirilerek o bölümle ilgili tüm kontenjanlarda bulunan detaylara ulaşmak mümkündür. Basit bir döngü ve veri üzerinde her zamanki kadar zahmetli olan düzenlemeleri yaparak parametrelerin tahmininde kullanılan veri hazırlanmış olur. Ek olarak puanlar hesaplanırken OBP katsayısının cezalı kullanılıp kullanılmadığını anlamak amacıyla her programın detay sayfasından yerleşen son öğrencinin Öğrenim durumu bilgisi de çekilip veriye eklenmiştir. Verinin hazır formu buradan indirilebilir.

Kod

all <- read_excel("puanData.xlsx")
all$PuanTuru <- as.factor(all$`PuanTuru`)
all

# A tibble: 20,069 × 28
   ProgramKodu Üniversite      Yılı Türü  Katsayı   OBP  Puan Yerl. `TYT Türkçe`
         <dbl> <chr>          <dbl> <chr>   <dbl> <dbl> <dbl> <dbl>        <dbl>
 1   101290082 ARDAHAN ÜNİV.…  2021 Devl…    0.12  363.  246.     2         22.5
 2   101890037 BAYBURT ÜNİV.…  2021 Devl…    0.12  361.  240.     1         15.5
 3   102710387 ÇANAKKALE ONS…  2021 Devl…    0.12  429.  238.    62         23.8
 4   111091394 SAĞLIK BİLİML…  2021 Devl…    0.12  398.  235.    41         19.5
 5   104710336 GÜMÜŞHANE ÜNİ…  2021 Devl…    0.12  371.  227.     1         14  
 6   108990307 SELÇUK ÜNİV. …  2021 Devl…    0.12  366.  225.    62         10.2
 7   101370270 ARTVİN ÇORUH …  2021 Devl…    0.12  327.  220.     7         16.5
 8   109590048 MUNZUR ÜNİV. …  2021 Devl…    0.12  413.  218.    11         13.5
 9   107710442 HATAY MUSTAFA…  2021 Devl…    0.12  462.  214.    52         NA  
10   100890057 AKSARAY ÜNİV.…  2021 Devl…    0.12  417.  210.    25         12.5
# … with 20,059 more rows, and 19 more variables: `TYT Sosyal` <dbl>,
#   `TYT Mat` <dbl>, `TYT Fen` <dbl>, `AYT Mat` <dbl>, `AYT Fizik` <dbl>,
#   `AYT Kimya` <dbl>, `AYT Biyoloji` <dbl>, `AYT Türkçe` <chr>,
#   `AYT Tarih1` <chr>, `AYT Coğrafya1` <chr>, `AYT TDE` <chr>,
#   `AYT Tar2` <chr>, `AYT Coğ2` <chr>, `AYT Fel` <chr>, `AYT Din` <chr>,
#   `YDT Dil` <chr>, PuanTuru <fct>, BoluMKodu <dbl>, stuType <chr>
…
